\relax 
\@writefile{toc}{\contentsline {chapter}{\numberline {0}Introduction}{1}}
\@writefile{lof}{\addvspace {10\p@ }}
\@writefile{lot}{\addvspace {10\p@ }}
\citation{leebook}
\citation{leebook}
\@writefile{toc}{\contentsline {chapter}{\numberline {1}Polytopes and optimisation}{3}}
\@writefile{lof}{\addvspace {10\p@ }}
\@writefile{lot}{\addvspace {10\p@ }}
\@writefile{toc}{\contentsline {section}{\numberline {1.1}Polytopes and Polyhedra}{3}}
\newlabel{smallest}{{1.1.2}{4}}
\newlabel{bounded polytope}{{1.1.4}{4}}
\@writefile{toc}{\contentsline {subsection}{\numberline {1.1.1}The dual polytope}{6}}
\newlabel{separation}{{1.1.9}{7}}
\newlabel{Farkas}{{1.1.10}{7}}
\newlabel{separating combination}{{1.1.11}{8}}
\@writefile{toc}{\contentsline {subsection}{\numberline {1.1.2}Weyl's and Minkowski's theorems for polytopes}{9}}
\@writefile{toc}{\contentsline {section}{\numberline {1.2}Linear programming and linear programming duality}{10}}
\@writefile{toc}{\contentsline {chapter}{\numberline {2}Algorithms for linear programming}{13}}
\@writefile{lof}{\addvspace {10\p@ }}
\@writefile{lot}{\addvspace {10\p@ }}
\@writefile{toc}{\contentsline {section}{\numberline {2.1}Overview}{13}}
\citation{santospaper}
\@writefile{toc}{\contentsline {subsection}{\numberline {2.1.1}The Simplex Method}{14}}
\@writefile{toc}{\contentsline {subsection}{\numberline {2.1.2}The Ellipsoid Method}{15}}
\citation{YLpaper}
\@writefile{toc}{\contentsline {subsection}{\numberline {2.1.3}Interior point method(s)}{16}}
\citation{YLpaper}
\citation{YL2paper}
\@writefile{toc}{\contentsline {section}{\numberline {2.2}The Yamnitsky-Levin algorithm}{17}}
\citation{MWpaper}
\@writefile{toc}{\contentsline {section}{\numberline {2.3}The Multiplicative Weights Update Method}{21}}
\newlabel{mwum}{{2.3.2}{22}}
\newlabel{bound-potential}{{2.1}{23}}
\@writefile{toc}{\contentsline {subsection}{\numberline {2.3.1}Plotkin, Shmoys, Tardos framework for LPs}{24}}
\citation{PSTpaper}
\citation{PTASpaper}
\@writefile{toc}{\contentsline {subsection}{\numberline {2.3.2}An oracle for fractional packing LPs}{26}}
\@writefile{toc}{\contentsline {chapter}{\numberline {3}Packing algorithms and the YL algorithm}{28}}
\@writefile{lof}{\addvspace {10\p@ }}
\@writefile{lot}{\addvspace {10\p@ }}
\@writefile{toc}{\contentsline {section}{\numberline {3.1}The min-volume packing problem}{28}}
\newlabel{preduality}{{3.1.3}{29}}
\newlabel{Disgood}{{3.1.5}{30}}
\@writefile{toc}{\contentsline {subsection}{\numberline {3.1.1}The min-volume problem as a packing LP}{33}}
\newlabel{extended convex}{{3.1.9}{33}}
\newlabel{figura}{{3.1.1}{34}}
\@writefile{lof}{\contentsline {figure}{\numberline {3.1}{\ignorespaces The polyhedron, $\mathcal  {P}$, and the set of centroids of feasible constraints, $c(\mathcal  {D}^+)$. That there is only one point in the intersection, the optimum. At the right, the same image, in the dual space.}}{34}}
\newlabel{oracle1}{{3.1.11}{34}}
\newlabel{goodmu}{{3.1.13}{35}}
\newlabel{oracle2}{{3.1.14}{36}}
\@writefile{toc}{\contentsline {subsection}{\numberline {3.1.2}The Yamnitsky-Levin algorithm, revisited}{38}}
\newlabel{YL}{{3.1.17}{39}}
\@writefile{toc}{\contentsline {section}{\numberline {3.2}Better algorithms: Learning oracle and adaptive step size}{40}}
\@writefile{toc}{\contentsline {subsection}{\numberline {3.2.1}The learning oracles}{40}}
\newlabel{problem1}{{3.1}{41}}
\newlabel{secondAlgorithm}{{3.2.5}{45}}
\@writefile{toc}{\contentsline {subsection}{\numberline {3.2.2}A simpler algorithm}{45}}
\newlabel{mwum2}{{3.2.6}{45}}
\newlabel{algorithm3}{{3.2.7}{46}}
\@writefile{toc}{\contentsline {section}{\numberline {3.3}Final considerations for a complete algorithm.}{48}}
\citation{YL2paper}
\bibdata{bibliography}
\@writefile{toc}{\contentsline {chapter}{\numberline {4}Conclusions}{50}}
\@writefile{lof}{\addvspace {10\p@ }}
\@writefile{lot}{\addvspace {10\p@ }}
\@writefile{toc}{\contentsline {chapter}{Bibliography}{50}}
\bibcite{MWpaper}{1}
\bibcite{YL2paper}{2}
\bibcite{PTASpaper}{3}
\bibcite{leebook}{4}
\bibcite{PSTpaper}{5}
\bibcite{santospaper}{6}
\bibcite{YLpaper}{7}
\bibstyle{plain}
